<?xml version="1.0" encoding="UTF-8" standalone="no"?>
<!-- Created with Inkscape (http://www.inkscape.org/) -->

<svg
   width="48mm"
   height="48mm"
   viewBox="0 0 48 48"
   version="1.1"
   id="svg5"
   inkscape:version="1.2.2 (b0a8486541, 2022-12-01)"
   sodipodi:docname="logo.svg"
   inkscape:export-filename="logo.png"
   inkscape:export-xdpi="308.08676"
   inkscape:export-ydpi="308.08676"
   xmlns:inkscape="http://www.inkscape.org/namespaces/inkscape"
   xmlns:sodipodi="http://sodipodi.sourceforge.net/DTD/sodipodi-0.dtd"
   xmlns="http://www.w3.org/2000/svg"
   xmlns:svg="http://www.w3.org/2000/svg">
  <sodipodi:namedview
     id="namedview7"
     pagecolor="#ffffff"
     bordercolor="#666666"
     borderopacity="1.0"
     inkscape:showpageshadow="2"
     inkscape:pageopacity="0.0"
     inkscape:pagecheckerboard="0"
     inkscape:deskcolor="#d1d1d1"
     inkscape:document-units="mm"
     showgrid="false"
     inkscape:zoom="2.8284271"
     inkscape:cx="31.289475"
     inkscape:cy="84.676037"
     inkscape:window-width="2560"
     inkscape:window-height="1307"
     inkscape:window-x="0"
     inkscape:window-y="0"
     inkscape:window-maximized="1"
     inkscape:current-layer="layer1" />
  <defs
     id="defs2">
    <inkscape:path-effect
       effect="bspline"
       id="path-effect7211"
       is_visible="true"
       lpeversion="1"
       weight="33.333333"
       steps="2"
       helper_size="0"
       apply_no_weight="true"
       apply_with_weight="true"
       only_selected="false" />
    <inkscape:path-effect
       effect="bspline"
       id="path-effect369"
       is_visible="true"
       lpeversion="1"
       weight="33.333333"
       steps="2"
       helper_size="0"
       apply_no_weight="true"
       apply_with_weight="true"
       only_selected="false" />
    <inkscape:path-effect
       effect="bspline"
       id="path-effect365"
       is_visible="true"
       lpeversion="1"
       weight="33.333333"
       steps="2"
       helper_size="0"
       apply_no_weight="true"
       apply_with_weight="true"
       only_selected="false" />
    <inkscape:path-effect
       effect="bspline"
       id="path-effect361"
       is_visible="true"
       lpeversion="1"
       weight="33.333333"
       steps="2"
       helper_size="0"
       apply_no_weight="true"
       apply_with_weight="true"
       only_selected="false" />
    <inkscape:path-effect
       effect="bspline"
       id="path-effect357"
       is_visible="true"
       lpeversion="1"
       weight="33.333333"
       steps="2"
       helper_size="0"
       apply_no_weight="true"
       apply_with_weight="true"
       only_selected="false" />
    <inkscape:path-effect
       effect="bspline"
       id="path-effect353"
       is_visible="true"
       lpeversion="1"
       weight="33.333333"
       steps="2"
       helper_size="0"
       apply_no_weight="true"
       apply_with_weight="true"
       only_selected="false" />
    <inkscape:path-effect
       effect="bspline"
       id="path-effect349"
       is_visible="true"
       lpeversion="1"
       weight="33.333333"
       steps="2"
       helper_size="0"
       apply_no_weight="true"
       apply_with_weight="true"
       only_selected="false" />
    <inkscape:path-effect
       effect="bspline"
       id="path-effect345"
       is_visible="true"
       lpeversion="1"
       weight="33.333333"
       steps="2"
       helper_size="0"
       apply_no_weight="true"
       apply_with_weight="true"
       only_selected="false" />
    <inkscape:path-effect
       effect="bspline"
       id="path-effect341"
       is_visible="true"
       lpeversion="1"
       weight="33.333333"
       steps="2"
       helper_size="0"
       apply_no_weight="true"
       apply_with_weight="true"
       only_selected="false" />
    <inkscape:path-effect
       effect="bspline"
       id="path-effect337"
       is_visible="true"
       lpeversion="1"
       weight="33.333333"
       steps="2"
       helper_size="0"
       apply_no_weight="true"
       apply_with_weight="true"
       only_selected="false" />
    <inkscape:path-effect
       effect="bspline"
       id="path-effect333"
       is_visible="true"
       lpeversion="1"
       weight="33.333333"
       steps="2"
       helper_size="0"
       apply_no_weight="true"
       apply_with_weight="true"
       only_selected="false" />
    <inkscape:path-effect
       effect="bspline"
       id="path-effect225"
       is_visible="true"
       lpeversion="1"
       weight="33.333333"
       steps="2"
       helper_size="0"
       apply_no_weight="true"
       apply_with_weight="true"
       only_selected="false" />
    <inkscape:path-effect
       effect="bspline"
       id="path-effect221"
       is_visible="true"
       lpeversion="1"
       weight="33.333333"
       steps="2"
       helper_size="0"
       apply_no_weight="true"
       apply_with_weight="true"
       only_selected="false" />
    <inkscape:path-effect
       effect="bspline"
       id="path-effect217"
       is_visible="true"
       lpeversion="1"
       weight="33.333333"
       steps="2"
       helper_size="0"
       apply_no_weight="true"
       apply_with_weight="true"
       only_selected="false" />
    <inkscape:path-effect
       effect="bspline"
       id="path-effect213"
       is_visible="true"
       lpeversion="1"
       weight="33.333333"
       steps="2"
       helper_size="0"
       apply_no_weight="true"
       apply_with_weight="true"
       only_selected="false" />
    <inkscape:path-effect
       effect="bspline"
       id="path-effect209"
       is_visible="true"
       lpeversion="1"
       weight="33.333333"
       steps="2"
       helper_size="0"
       apply_no_weight="true"
       apply_with_weight="true"
       only_selected="false" />
    <inkscape:path-effect
       effect="bspline"
       id="path-effect205"
       is_visible="true"
       lpeversion="1"
       weight="33.333333"
       steps="2"
       helper_size="0"
       apply_no_weight="true"
       apply_with_weight="true"
       only_selected="false" />
    <inkscape:path-effect
       effect="bspline"
       id="path-effect201"
       is_visible="true"
       lpeversion="1"
       weight="33.333333"
       steps="2"
       helper_size="0"
       apply_no_weight="true"
       apply_with_weight="true"
       only_selected="false" />
    <inkscape:path-effect
       effect="bspline"
       id="path-effect197"
       is_visible="true"
       lpeversion="1"
       weight="33.333333"
       steps="2"
       helper_size="0"
       apply_no_weight="true"
       apply_with_weight="true"
       only_selected="false" />
  </defs>
  <g
     inkscape:label="Ebene 1"
     inkscape:groupmode="layer"
     id="layer1"
     transform="translate(-86.864984,-8.2869979)">
    <g
       id="g43102"
       transform="translate(2.8942555,7.8383972)">
      <path
         style="fill:none;stroke:#f74c00;stroke-width:0.5;stroke-dasharray:none;stroke-opacity:1"
         d="m 93.516122,24.381043 c -6.79303,-1.753759 -4.61838,-5.840806 -1.40767,-8.572943"
         id="path26129"
         sodipodi:nodetypes="cc" />
      <path
         style="fill:none;stroke:#f74c00;stroke-width:0.499999;stroke-dasharray:none;stroke-opacity:1"
         d="m 118.6134,24.520142 c 7.70069,0.571016 6.35852,-7.36258 6.31411,-7.584605"
         id="path26131"
         sodipodi:nodetypes="cc" />
      <path
         style="fill:none;fill-opacity:1;stroke:#f74c00;stroke-width:0.499999;stroke-dasharray:none;stroke-opacity:1"
         d="m 93.624112,28.528952 c -8.57335,4.326006 -6.21371,9.753179 -6.21371,9.753179"
         id="path26139" />
      <path
         style="fill:none;fill-opacity:1;stroke:#f74c00;stroke-width:0.499999;stroke-dasharray:none;stroke-opacity:1"
         d="m 94.725282,30.809938 c -4.48332,3.696768 -3.3035,8.494704 -3.3035,8.494704"
         id="path26141"
         sodipodi:nodetypes="cc" />
      <path
         style="fill:none;fill-opacity:1;stroke:#f74c00;stroke-width:0.499999;stroke-dasharray:none;stroke-opacity:1"
         d="m 97.163582,31.439176 c -3.30351,3.38215 -2.20233,9.12394 -2.20233,9.12394"
         id="path26143"
         sodipodi:nodetypes="cc" />
      <path
         style="fill:none;fill-opacity:1;stroke:#f74c00;stroke-width:0.499999;stroke-dasharray:none;stroke-opacity:1"
         d="m 118.55764,27.97837 c 7.78682,1.494437 10.30376,5.741791 10.30376,5.741791"
         id="path26145"
         sodipodi:nodetypes="cc" />
      <path
         style="fill:none;fill-opacity:1;stroke:#f74c00;stroke-width:0.499999;stroke-dasharray:none;stroke-opacity:1"
         d="m 118.32167,29.944735 c 4.1687,1.651749 6.76431,5.741791 6.76431,5.741791"
         id="path26147"
         sodipodi:nodetypes="cc" />
      <path
         style="fill:none;fill-opacity:1;stroke:#f74c00;stroke-width:0.499999;stroke-dasharray:none;stroke-opacity:1"
         d="m 116.11935,31.124557 c 3.69677,1.730401 5.66314,6.371026 5.66314,6.371026"
         id="path26149"
         sodipodi:nodetypes="cc" />
      <path
         style="fill:none;fill-opacity:1;stroke:#000000;stroke-width:0.499999;stroke-dasharray:none;stroke-opacity:1"
         d="m 109.55668,14.821457 c -0.56444,-1.008007 -1.32577,-0.195689 -1.39302,-0.04571"
         id="path26155"
         sodipodi:nodetypes="cc" />
      <path
         style="fill:#f74c00;fill-opacity:1;stroke:#f74c00;stroke-width:0.3;stroke-dasharray:none;stroke-opacity:1"
         d="m 92.108452,15.8081 c -3.84955,-6.3429389 4.62304,-7.2015249 4.92039,-7.0027539 -2.52172,2.2911779 -4.32716,4.6173509 -4.92039,7.0027539 3.60755,-0.409528 7.45609,-4.20469 7.45609,-4.20469 0,0 -0.0691,6.854631 -7.45609,4.20469"
         id="path26159"
         sodipodi:nodetypes="ccccc" />
      <path
         style="fill:#f74c00;fill-opacity:1;stroke:#f74c00;stroke-width:0.3;stroke-dasharray:none;stroke-opacity:1"
         d="m 124.92751,16.935537 c 7.23859,-1.629331 1.97779,-8.3260269 1.62833,-8.4022239 0.1,3.4056669 -0.32229,6.3198359 -1.62833,8.4022239 -2.20835,-2.881892 -2.146,-8.2865729 -2.146,-8.2865729 0,0 -4.88796,4.8060899 2.146,8.2865729"
         id="path26161"
         sodipodi:nodetypes="ccccc" />
      <g
         id="g26137"
         transform="matrix(0.26458333,0,0,0.26458333,33.543353,-71.698004)"
         style="fill:#dbdbdb;fill-opacity:1;stroke-width:1.88976;stroke-dasharray:none">
        <path
           sodipodi:nodetypes="ccscc"
           style="fill:#dbdbdb;fill-opacity:1;stroke:#000000;stroke-width:1.88976;stroke-linecap:butt;stroke-linejoin:miter;stroke-dasharray:none;stroke-opacity:1"
           d="m 321.38603,358.44372 0.0152,23.34527 c 0.0152,6.4097 -21.19292,11.60977 -47.35448,11.60977 -26.16155,0 -47.36969,-5.20007 -47.32796,-11.60977 l 0.0417,-23.18423"
           id="path26133"
           inkscape:connector-curvature="0" />
        <ellipse
           transform="translate(27.63327,216.01774)"
           id="ellipse26135"
           style="fill:#dbdbdb;fill-opacity:1;stroke:#000000;stroke-width:1.88976;stroke-linecap:round;stroke-linejoin:miter;stroke-miterlimit:4;stroke-dasharray:none;stroke-dashoffset:0;stroke-opacity:1"
           cx="246.41348"
           cy="142.57719"
           rx="47.36969"
           ry="11.614683" />
      </g>
      <path
         style="fill:none;fill-opacity:1;stroke:#000000;stroke-width:0.499999;stroke-dasharray:none;stroke-opacity:1"
         d="m 102.21491,15.338006 c 0.29387,-1.117274 1.23445,-0.521622 1.33713,-0.393274"
         id="path26153"
         sodipodi:nodetypes="cc" />
      <path
         style="fill:none;fill-opacity:1;stroke:#f74c00;stroke-width:0.5;stroke-linejoin:bevel;stroke-dasharray:none;stroke-opacity:1"
         d="m 107.63418,23.140505 c -0.5239,-4.058451 0.21255,-6.553492 0.22076,-6.552108 0,0 1.6198,-0.410938 2.35437,-1.297097 0.43539,-0.525235 0.74947,-1.785254 -0.65029,-2.355549 -1.19527,-0.48701 -1.87178,0.22939 -2.21354,0.871318 -0.5282,0.992114 0.50942,2.781337 0.50942,2.781337"
         id="path26157"
         sodipodi:nodetypes="ccsssc" />
      <path
         style="fill:none;fill-opacity:1;stroke:#f74c00;stroke-width:0.5;stroke-linejoin:bevel;stroke-dasharray:none;stroke-opacity:1"
         d="m 104.96528,23.297216 c 0.36334,-6.063093 -0.67589,-6.512375 -0.6835,-6.508994 0,0 -1.67111,0.0045 -2.60286,-0.671307 -0.55226,-0.400556 -1.16962,-1.542992 0.0445,-2.443258 1.03675,-0.768776 1.87007,-0.242973 2.36064,0.293884 0.75818,0.829725 0.19776,2.820681 0.19776,2.820681"
         id="path26151"
         sodipodi:nodetypes="ccsssc" />
    </g>
  </g>
</svg>
